Financial Stocks in DJIA Index · Portfolio Website for Disha
…
##Creating a new dataframe for summary statistics for monthly stock returns

Summary_daily_returns <- myStocks_returns_daily %>%
  filter(date >="2017-01-01") %>%
  summarise(Min=min(daily_returns), Max= max(daily_returns), Median= median(daily_returns), Mean= mean(daily_returns), Standard_Deviation=sd(daily_returns)) #create dataframe

## `summarise()` ungrouping output (override with `.groups` argument)

Summary_daily_returns #view dataframe

## # A tibble: 31 x 6
##    symbol     Min    Max   Median       Mean Standard_Deviation
##    <chr>    <dbl>  <dbl>    <dbl>      <dbl>              <dbl>
##  1 AAPL   -0.138  0.113  0.00144   0.00164               0.0194
##  2 AMGN   -0.0862 0.103  0.000681  0.000712              0.0165
##  3 AXP    -0.160  0.198  0.000884  0.000417              0.0217
##  4 BA     -0.272  0.218  0.000880  0.000214              0.0312
##  5 CAT    -0.154  0.0983 0.000599  0.000587              0.0206
##  6 CRM    -0.173  0.231  0.00198   0.00149               0.0216
##  7 CSCO   -0.119  0.126  0.00127   0.000490              0.0184
##  8 CVX    -0.250  0.205  0.000603 -0.000175              0.0218
##  9 DIS    -0.139  0.135  0.000212  0.000332              0.0180
## 10 DOW    -0.244  0.190  0.00148   0.0000408             0.0345
## # ... with 21 more rows
…
